@startuml

skinparam componentStyle uml2

title Kilburn Projects Architecture


database "\nPersistance\n" as database {
}

folder api {
    interface "compte-domain" as api_compte_domain
    interface "operation-datasource" as api_operation_datasource
    interface "operation-domain" as api_operation_domain
}

folder app {
    component [frontend] as app_frontend #LightBlue
    component [operation-importation-batch] as app_operation_importation_batch #LightBlue
    component [operation-integration-batch] as app_operation_integration_batch #LightBlue
    component [webapp-full-package] as app_webapp_full_package #LightBlue
}

folder backend {
    component [compte] as backend_compte
    component [operation] as backend_operation
}

folder core {
    component [compte-domain] as core_compte_domain
    component [operation-domain] as core_operation_domain
    component [operation-importation] as core_operation_importation
    component [operation-integration] as core_operation_integration
}

package shared {
    component [jpa] as shared_jpa
    component [json] as shared_json
    component [rest] as shared_rest
    component [rest-client] as shared_rest_client
}

package support {
    component [client-moncmb] as support_client_moncmb
    component [operation-datasource-moncmb] as support_operation_datasource_moncmb
}

cloud "Internet\n" as internet {
    interface "mon.cmb.fr" as internet_moncmb
}


api_operation_datasource --> api_operation_domain
api_operation_domain --> api_compte_domain

app_frontend -right-( app_webapp_full_package
app_operation_importation_batch -up-> database
app_operation_importation_batch --> core_operation_importation
app_operation_importation_batch --> support_operation_datasource_moncmb
app_operation_integration_batch -up-> database
app_operation_integration_batch --> core_operation_integration
app_operation_integration_batch --> support_operation_datasource_moncmb
app_webapp_full_package -up-> database
app_webapp_full_package --> backend_compte
app_webapp_full_package --> backend_operation
app_webapp_full_package --> core_operation_importation
app_webapp_full_package --> core_operation_integration
app_webapp_full_package --> support_operation_datasource_moncmb

backend_compte --> core_compte_domain
backend_compte --> core_operation_domain
backend_compte --> shared_rest
backend_operation --> api_operation_domain
backend_operation --> core_operation_domain
backend_operation --> shared_rest

core_compte_domain --( api_compte_domain
core_operation_domain --( api_compte_domain
core_operation_domain --( api_operation_domain
core_operation_domain --> core_compte_domain
core_operation_domain --> shared_jpa
core_operation_importation --( api_operation_datasource
core_operation_importation --( api_operation_domain
core_operation_importation --> core_operation_domain
core_operation_integration --( api_compte_domain
core_operation_integration --( api_operation_datasource
core_operation_integration --( api_operation_domain
core_operation_integration --> core_compte_domain
core_operation_integration --> core_operation_domain

shared_rest --> shared_json

support_client_moncmb --( internet_moncmb
support_client_moncmb --> shared_json
support_client_moncmb --> shared_rest_client
support_operation_datasource_moncmb --( api_operation_datasource
support_operation_datasource_moncmb --( api_operation_domain
support_operation_datasource_moncmb --> shared_rest_client
support_operation_datasource_moncmb --> support_client_moncmb


@enduml